EESchema Schematic File Version 4
LIBS:motorpedal-cache
EELAYER 26 0
EELAYER END
$Descr A4 11693 8268
encoding utf-8
Sheet 1 1
Title ""
Date ""
Rev ""
Comp ""
Comment1 ""
Comment2 ""
Comment3 ""
Comment4 ""
$EndDescr
Wire Wire Line
	2500 3700 2500 3800
Wire Wire Line
	2500 3400 2500 3350
Wire Wire Line
	2500 3400 2500 3500
Connection ~ 2500 3400
Wire Wire Line
	2500 3400 2900 3400
$Comp
L ic:U_MCU_ATMEL_ATMEGA328P-PU U1
U 1 1 5AC56C08
P 2900 2700
F 0 "U1" H 4200 2850 50  0000 C CNN
F 1 "U_MCU_ATMEL_ATMEGA328P-PU" H 4200 450 50  0000 C CNN
F 2 "ic_tht:DIP889W46P254L3467H457Q28B_ATMEGA328P-PU" H 2600 2700 50  0001 C CNN
F 3 "" H 2600 2700 50  0001 C CNN
	1    2900 2700
	1    0    0    -1  
$EndComp
$Comp
L passive:C_NP C1
U 1 1 5AC526D8
P 2500 3600
F 0 "C1" V 2454 3678 50  0000 L CNN
F 1 "100n" V 2545 3678 50  0000 L CNN
F 2 "discrete_smt:CAPC1608X95N_0603_IPC-B" H 2500 3600 50  0001 C CNN
F 3 "" H 2500 3600 50  0001 C CNN
	1    2500 3600
	0    1    1    0   
$EndComp
$Comp
L sch_power:GND #PWR02
U 1 1 5AC527CE
P 2500 3850
F 0 "#PWR02" H 2500 3750 50  0001 C CNN
F 1 "GND" H 2500 3750 50  0000 C CNN
F 2 "" H 2500 3850 50  0001 C CNN
F 3 "" H 2500 3850 50  0001 C CNN
	1    2500 3850
	1    0    0    -1  
$EndComp
$Comp
L sch_power:V_5V0 #PWR01
U 1 1 5AC52CAC
P 2500 3350
F 0 "#PWR01" H 2500 3350 50  0001 C CNN
F 1 "V_5V0" H 2500 3500 50  0000 C CNN
F 2 "" H 2500 3350 50  0001 C CNN
F 3 "" H 2500 3350 50  0001 C CNN
	1    2500 3350
	1    0    0    -1  
$EndComp
Connection ~ 2500 3800
Wire Wire Line
	2500 3800 2500 3850
Wire Wire Line
	2500 3800 2900 3800
Wire Wire Line
	2300 4700 2300 4800
Wire Wire Line
	2300 4400 2300 4350
Wire Wire Line
	2300 4400 2300 4500
Connection ~ 2300 4400
Wire Wire Line
	2300 4400 2900 4400
$Comp
L passive:C_NP C2
U 1 1 5AC53A95
P 2300 4600
F 0 "C2" V 2254 4678 50  0000 L CNN
F 1 "100n" V 2345 4678 50  0000 L CNN
F 2 "discrete_smt:CAPC1608X95N_0603_IPC-B" H 2300 4600 50  0001 C CNN
F 3 "" H 2300 4600 50  0001 C CNN
	1    2300 4600
	0    1    1    0   
$EndComp
$Comp
L sch_power:GND #PWR04
U 1 1 5AC53A9C
P 2300 4850
F 0 "#PWR04" H 2300 4750 50  0001 C CNN
F 1 "GND" H 2300 4750 50  0000 C CNN
F 2 "" H 2300 4850 50  0001 C CNN
F 3 "" H 2300 4850 50  0001 C CNN
	1    2300 4850
	1    0    0    -1  
$EndComp
$Comp
L sch_power:V_5V0 #PWR03
U 1 1 5AC53AA2
P 2300 4350
F 0 "#PWR03" H 2300 4350 50  0001 C CNN
F 1 "V_5V0" H 2300 4500 50  0000 C CNN
F 2 "" H 2300 4350 50  0001 C CNN
F 3 "" H 2300 4350 50  0001 C CNN
	1    2300 4350
	1    0    0    -1  
$EndComp
Connection ~ 2300 4800
Wire Wire Line
	2300 4800 2300 4850
Wire Wire Line
	2300 4800 2650 4800
Wire Wire Line
	5500 3200 6150 3200
Wire Wire Line
	5500 3100 6150 3100
Wire Wire Line
	5500 3000 6150 3000
Text GLabel 6150 3000 2    50   Input ~ 0
ICSP_MOSI
Wire Wire Line
	9400 1000 8750 1000
Wire Wire Line
	9400 1100 8750 1100
Wire Wire Line
	9400 1200 8750 1200
Wire Wire Line
	10000 1000 10450 1000
Wire Wire Line
	10000 1200 10450 1200
Text Label 8850 1000 0    50   ~ 0
ICSP_MISO
Text Label 8850 1100 0    50   ~ 0
ICSP_SCK
Text Label 8850 1200 0    50   ~ 0
RST_MCU#
Text Label 10100 1100 0    50   ~ 0
ICSP_MOSI
Text Label 10100 1200 0    50   ~ 0
GND
Text Label 10100 1000 0    50   ~ 0
V_5V0
$Comp
L sch_power:V_5V0 #PWR06
U 1 1 5AC553BC
P 10450 900
F 0 "#PWR06" H 10450 900 50  0001 C CNN
F 1 "V_5V0" H 10450 1050 50  0000 C CNN
F 2 "" H 10450 900 50  0001 C CNN
F 3 "" H 10450 900 50  0001 C CNN
	1    10450 900 
	1    0    0    -1  
$EndComp
Wire Wire Line
	10450 1000 10450 900 
$Comp
L sch_power:GND #PWR07
U 1 1 5AC55845
P 10450 1300
F 0 "#PWR07" H 10450 1200 50  0001 C CNN
F 1 "GND" H 10450 1200 50  0000 C CNN
F 2 "" H 10450 1300 50  0001 C CNN
F 3 "" H 10450 1300 50  0001 C CNN
	1    10450 1300
	1    0    0    -1  
$EndComp
Wire Wire Line
	10450 1200 10450 1300
Text GLabel 8750 1000 0    50   Input ~ 0
ICSP_MISO
Text GLabel 8750 1100 0    50   Input ~ 0
ICSP_SCK
Text GLabel 8750 1200 0    50   Input ~ 0
RST_MCU#
Text GLabel 10600 1100 2    50   Input ~ 0
ICSP_MOSI
Wire Notes Line
	8150 550  8150 1600
Wire Notes Line
	8150 1600 11150 1600
Wire Notes Line
	11150 1600 11150 550 
Wire Notes Line
	11150 550  8150 550 
Text Notes 8200 650  0    50   ~ 0
ICSP Header
Wire Wire Line
	10000 1100 10600 1100
Text Label 5600 3000 0    50   ~ 0
ICSP_MOSI
Text Label 5600 3100 0    50   ~ 0
ICSP_MISO
Text Label 5600 3200 0    50   ~ 0
ICSP_SCK
Text GLabel 6150 3100 2    50   Output ~ 0
ICSP_MISO
Text GLabel 6150 3200 2    50   Input ~ 0
ICSP_SCK
$Comp
L passive:R R1
U 1 1 5AC58F7F
P 2200 2400
F 0 "R1" V 2246 2337 50  0000 R CNN
F 1 "10k" V 2155 2337 50  0000 R CNN
F 2 "discrete_smt:RESC1608X50N_0603_WAVEPAD" H 2200 2400 50  0001 C CNN
F 3 "" H 2200 2400 50  0001 C CNN
	1    2200 2400
	0    -1   -1   0   
$EndComp
Wire Wire Line
	2200 2700 2200 2600
$Comp
L sch_power:V_5V0 #PWR05
U 1 1 5AC5920D
P 2200 2150
F 0 "#PWR05" H 2200 2150 50  0001 C CNN
F 1 "V_5V0" H 2200 2300 50  0000 C CNN
F 2 "" H 2200 2150 50  0001 C CNN
F 3 "" H 2200 2150 50  0001 C CNN
	1    2200 2150
	1    0    0    -1  
$EndComp
Wire Wire Line
	2200 2150 2200 2200
Wire Wire Line
	2200 2700 2100 2700
Connection ~ 2200 2700
Text Label 2400 2700 0    50   ~ 0
RST_MCU#
Wire Wire Line
	2900 2700 2200 2700
Text GLabel 2100 2700 0    50   Input ~ 0
RST_MCU#
Wire Wire Line
	2900 2900 1450 2900
Wire Wire Line
	1450 2900 1450 3200
Wire Wire Line
	2900 3000 1550 3000
Wire Wire Line
	1550 3000 1550 3200
$Comp
L sch_power:GND #PWR08
U 1 1 5AC5C8E7
P 1100 4300
F 0 "#PWR08" H 1100 4200 50  0001 C CNN
F 1 "GND" H 1100 4200 50  0000 C CNN
F 2 "" H 1100 4300 50  0001 C CNN
F 3 "" H 1100 4300 50  0001 C CNN
	1    1100 4300
	1    0    0    -1  
$EndComp
$Comp
L sch_power:GND #PWR09
U 1 1 5AC5CCE1
P 1900 4300
F 0 "#PWR09" H 1900 4200 50  0001 C CNN
F 1 "GND" H 1900 4200 50  0000 C CNN
F 2 "" H 1900 4300 50  0001 C CNN
F 3 "" H 1900 4300 50  0001 C CNN
	1    1900 4300
	1    0    0    -1  
$EndComp
$Comp
L passive:R R2
U 1 1 5AC5D212
P 1500 3400
F 0 "R2" H 1610 3420 50  0000 L BNN
F 1 "10M" H 1610 3380 50  0000 L TNN
F 2 "discrete_smt:RESC1608X50N_0603_WAVEPAD" H 1500 3400 50  0001 C CNN
F 3 "" H 1500 3400 50  0001 C CNN
	1    1500 3400
	1    0    0    -1  
$EndComp
Wire Wire Line
	1100 3200 1100 3400
Wire Wire Line
	1900 3200 1900 3400
$Comp
L passive:C_NP C3
U 1 1 5AC5EBC9
P 1100 4100
F 0 "C3" H 1160 4120 50  0000 L BNN
F 1 "18p" H 1160 4080 50  0000 L TNN
F 2 "discrete_smt:CAPC1608X95N_0603_IPC-B" H 1100 4100 50  0001 C CNN
F 3 "" H 1100 4100 50  0001 C CNN
	1    1100 4100
	0    -1   -1   0   
$EndComp
$Comp
L passive:C_NP C4
U 1 1 5AC5EC6F
P 1900 4100
F 0 "C4" H 1960 4120 50  0000 L BNN
F 1 "18p" H 1960 4080 50  0000 L TNN
F 2 "discrete_smt:CAPC1608X95N_0603_IPC-B" H 1900 4100 50  0001 C CNN
F 3 "" H 1900 4100 50  0001 C CNN
	1    1900 4100
	0    -1   -1   0   
$EndComp
Wire Wire Line
	1100 4300 1100 4200
Wire Wire Line
	1900 4300 1900 4200
Connection ~ 1900 3400
Connection ~ 1100 3400
Wire Wire Line
	1100 3400 1300 3400
Wire Wire Line
	1700 3400 1900 3400
Wire Wire Line
	1550 3200 1900 3200
Wire Wire Line
	1100 3200 1450 3200
$Comp
L active:D_2A_CC D1
U 1 1 5AC625E1
P 7800 4100
F 0 "D1" V 7750 4250 50  0000 R CNN
F 1 "MBR20100CT" V 7850 4650 50  0000 R CNN
F 2 "discrete_tht:TO254P483X1010X1855-3B_MBR20100CT-D" H 7700 4100 50  0001 C CNN
F 3 "" H 7700 4100 50  0001 C CNN
	1    7800 4100
	0    -1   -1   0   
$EndComp
$Comp
L active:NFET Q3
U 1 1 5AC6279F
P 7800 4650
F 0 "Q3" H 7838 4696 50  0000 L CNN
F 1 "IRF3205" H 7838 4605 50  0000 L CNN
F 2 "discrete_tht:TO254P469X1042X1916-3B_IRF3205" H 7800 4650 50  0001 C CNN
F 3 "" H 7800 4650 50  0001 C CNN
	1    7800 4650
	1    0    0    -1  
$EndComp
$Comp
L sch_power:V_12V0 #PWR022
U 1 1 5AC65EE9
P 8150 4000
F 0 "#PWR022" H 8150 4000 50  0001 C CNN
F 1 "V_12V0" H 8150 4150 50  0000 C CNN
F 2 "" H 8150 4000 50  0001 C CNN
F 3 "" H 8150 4000 50  0001 C CNN
	1    8150 4000
	1    0    0    -1  
$EndComp
$Comp
L sch_power:GND #PWR021
U 1 1 5AC65F36
P 7800 5750
F 0 "#PWR021" H 7800 5650 50  0001 C CNN
F 1 "GND" H 7800 5650 50  0000 C CNN
F 2 "" H 7800 5750 50  0001 C CNN
F 3 "" H 7800 5750 50  0001 C CNN
	1    7800 5750
	1    0    0    -1  
$EndComp
Wire Wire Line
	7800 4100 8150 4100
Wire Wire Line
	8150 4100 8150 4000
Wire Wire Line
	7800 4300 7800 4400
$Comp
L connector:J_GEN_1PIN J2
U 1 1 5AC6ACA7
P 10200 3850
F 0 "J2" H 10577 3896 50  0000 L CNN
F 1 "J_GEN_1PIN" H 10577 3805 50  0000 L CNN
F 2 "connector_tht:FASTON_6.3X0.8_90DEG_FS1573" H 10200 3850 50  0001 C CNN
F 3 "" H 10200 3850 50  0001 C CNN
	1    10200 3850
	1    0    0    -1  
$EndComp
$Comp
L connector:J_GEN_1PIN J3
U 1 1 5AC6AEC9
P 10200 4050
F 0 "J3" H 10577 4096 50  0000 L CNN
F 1 "J_GEN_1PIN" H 10577 4005 50  0000 L CNN
F 2 "connector_tht:FASTON_6.3X0.8_90DEG_FS1573" H 10200 4050 50  0001 C CNN
F 3 "" H 10200 4050 50  0001 C CNN
	1    10200 4050
	1    0    0    -1  
$EndComp
$Comp
L connector:J_GEN_1PIN J4
U 1 1 5AC6BAAF
P 10200 4750
F 0 "J4" H 10577 4796 50  0000 L CNN
F 1 "J_GEN_1PIN" H 10577 4705 50  0000 L CNN
F 2 "connector_tht:FASTON_6.3X0.8_90DEG_FS1573" H 10200 4750 50  0001 C CNN
F 3 "" H 10200 4750 50  0001 C CNN
	1    10200 4750
	1    0    0    -1  
$EndComp
$Comp
L connector:J_GEN_1PIN J5
U 1 1 5AC6C5E6
P 10200 4950
F 0 "J5" H 10577 4996 50  0000 L CNN
F 1 "J_GEN_1PIN" H 10577 4905 50  0000 L CNN
F 2 "connector_tht:FASTON_6.3X0.8_90DEG_FS1573" H 10200 4950 50  0001 C CNN
F 3 "" H 10200 4950 50  0001 C CNN
	1    10200 4950
	1    0    0    -1  
$EndComp
$Comp
L connector:J_GEN_1PIN J6
U 1 1 5AC6D122
P 10200 5700
F 0 "J6" H 10577 5746 50  0000 L CNN
F 1 "J_GEN_1PIN" H 10577 5655 50  0000 L CNN
F 2 "connector_tht:FASTON_6.3X0.8_90DEG_FS1573" H 10200 5700 50  0001 C CNN
F 3 "" H 10200 5700 50  0001 C CNN
	1    10200 5700
	1    0    0    -1  
$EndComp
$Comp
L connector:J_GEN_1PIN J7
U 1 1 5AC6DC5F
P 10200 5900
F 0 "J7" H 10577 5946 50  0000 L CNN
F 1 "J_GEN_1PIN" H 10577 5855 50  0000 L CNN
F 2 "connector_tht:FASTON_6.3X0.8_90DEG_FS1573" H 10200 5900 50  0001 C CNN
F 3 "" H 10200 5900 50  0001 C CNN
	1    10200 5900
	1    0    0    -1  
$EndComp
$Comp
L connector:J_GEN_1PIN J8
U 1 1 5AC6E79D
P 10200 6100
F 0 "J8" H 10577 6146 50  0000 L CNN
F 1 "J_GEN_1PIN" H 10577 6055 50  0000 L CNN
F 2 "connector_tht:FASTON_6.3X0.8_90DEG_FS1573" H 10200 6100 50  0001 C CNN
F 3 "" H 10200 6100 50  0001 C CNN
	1    10200 6100
	1    0    0    -1  
$EndComp
$Comp
L sch_power:GND #PWR024
U 1 1 5AC71E27
P 10150 4100
F 0 "#PWR024" H 10150 4000 50  0001 C CNN
F 1 "GND" H 10150 4000 50  0000 C CNN
F 2 "" H 10150 4100 50  0001 C CNN
F 3 "" H 10150 4100 50  0001 C CNN
	1    10150 4100
	1    0    0    -1  
$EndComp
$Comp
L sch_power:V_12V0 #PWR023
U 1 1 5AC71E74
P 10150 3800
F 0 "#PWR023" H 10150 3800 50  0001 C CNN
F 1 "V_12V0" H 10150 3950 50  0000 C CNN
F 2 "" H 10150 3800 50  0001 C CNN
F 3 "" H 10150 3800 50  0001 C CNN
	1    10150 3800
	1    0    0    -1  
$EndComp
Wire Wire Line
	10150 3800 10150 3850
Wire Wire Line
	10150 3850 10200 3850
Wire Wire Line
	10200 4050 10150 4050
Wire Wire Line
	10150 4050 10150 4100
Text GLabel 9600 4950 0    50   Input ~ 0
MOTOR-
Text GLabel 9600 4750 0    50   Input ~ 0
MOTOR+
Wire Wire Line
	9600 4750 10200 4750
Wire Wire Line
	9600 4950 10200 4950
Text Label 9800 4750 0    50   ~ 0
MOTOR+
Text Label 9800 4950 0    50   ~ 0
MOTOR-
$Comp
L sch_power:V_5V0 #PWR025
U 1 1 5AC7924A
P 10150 5650
F 0 "#PWR025" H 10150 5650 50  0001 C CNN
F 1 "V_5V0" H 10150 5800 50  0000 C CNN
F 2 "" H 10150 5650 50  0001 C CNN
F 3 "" H 10150 5650 50  0001 C CNN
	1    10150 5650
	1    0    0    -1  
$EndComp
Wire Wire Line
	10150 5650 10150 5700
Wire Wire Line
	10150 5700 10200 5700
$Comp
L sch_power:GND #PWR026
U 1 1 5AC7A1DB
P 10150 6150
F 0 "#PWR026" H 10150 6050 50  0001 C CNN
F 1 "GND" H 10150 6050 50  0000 C CNN
F 2 "" H 10150 6150 50  0001 C CNN
F 3 "" H 10150 6150 50  0001 C CNN
	1    10150 6150
	1    0    0    -1  
$EndComp
Wire Wire Line
	10200 6100 10150 6100
Wire Wire Line
	10150 6100 10150 6150
Text GLabel 9600 5900 0    50   Output ~ 0
V_POT
Wire Wire Line
	9600 5900 10200 5900
Text Label 9850 5900 0    50   ~ 0
V_POT
Wire Notes Line
	9100 3550 11100 3550
Wire Notes Line
	11100 3550 11100 4300
Wire Notes Line
	11100 4300 9100 4300
Wire Notes Line
	9100 4300 9100 3550
Wire Notes Line
	9100 4500 11100 4500
Wire Notes Line
	11100 4500 11100 5200
Wire Notes Line
	11100 5200 9100 5200
Wire Notes Line
	9100 5200 9100 4500
Wire Notes Line
	9100 5400 11100 5400
Wire Notes Line
	11100 5400 11100 6350
Wire Notes Line
	11100 6350 9100 6350
Wire Notes Line
	9100 6350 9100 5400
Text Notes 9100 3550 0    50   ~ 0
FASTON BATTERY INPUT
Text Notes 9100 4500 0    50   ~ 0
FASTON MOTOR OUTPUT
Text Notes 9100 5400 0    50   ~ 0
FASTON PEDAL
Wire Wire Line
	7800 4400 8300 4400
Connection ~ 7800 4400
Wire Wire Line
	7800 4400 7800 4500
Wire Wire Line
	8150 4100 8300 4100
Connection ~ 8150 4100
Text GLabel 8300 4100 2    50   Output ~ 0
MOTOR+
Text GLabel 8300 4400 2    50   Output ~ 0
MOTOR-
$Comp
L passive:R R7
U 1 1 5AC943C8
P 7500 5250
F 0 "R7" H 7610 5270 50  0000 L BNN
F 1 "47k" H 7610 5230 50  0000 L TNN
F 2 "discrete_smt:RESC1608X50N_0603_WAVEPAD" H 7500 5250 50  0001 C CNN
F 3 "" H 7500 5250 50  0001 C CNN
	1    7500 5250
	0    -1   -1   0   
$EndComp
Wire Wire Line
	7500 4700 7500 5050
$Comp
L sch_power:GND #PWR020
U 1 1 5AC956E2
P 7500 5750
F 0 "#PWR020" H 7500 5650 50  0001 C CNN
F 1 "GND" H 7500 5650 50  0000 C CNN
F 2 "" H 7500 5750 50  0001 C CNN
F 3 "" H 7500 5750 50  0001 C CNN
	1    7500 5750
	1    0    0    -1  
$EndComp
Wire Wire Line
	7650 4700 7500 4700
$Comp
L active:NFET Q2
U 1 1 5AC9D141
P 7000 5050
F 0 "Q2" H 7038 5096 50  0000 L CNN
F 1 "2N7002" H 7038 5005 50  0000 L CNN
F 2 "ic_smt:SOT-23_ONSEMI_2N7002" H 7000 5050 50  0001 C CNN
F 3 "" H 7000 5050 50  0001 C CNN
	1    7000 5050
	1    0    0    -1  
$EndComp
$Comp
L passive:R R6
U 1 1 5AC9D417
P 7000 4350
F 0 "R6" H 7110 4370 50  0000 L BNN
F 1 "1k" H 7110 4330 50  0000 L TNN
F 2 "discrete_smt:RESC1608X50N_0603_WAVEPAD" H 7000 4350 50  0001 C CNN
F 3 "" H 7000 4350 50  0001 C CNN
	1    7000 4350
	0    -1   -1   0   
$EndComp
Wire Wire Line
	7000 4550 7000 4700
Wire Wire Line
	7000 4700 7500 4700
Connection ~ 7000 4700
Wire Wire Line
	7000 4700 7000 4900
Connection ~ 7500 4700
$Comp
L sch_power:GND #PWR019
U 1 1 5AC9FC58
P 7000 5750
F 0 "#PWR019" H 7000 5650 50  0001 C CNN
F 1 "GND" H 7000 5650 50  0000 C CNN
F 2 "" H 7000 5750 50  0001 C CNN
F 3 "" H 7000 5750 50  0001 C CNN
	1    7000 5750
	1    0    0    -1  
$EndComp
$Comp
L sch_power:V_12V0 #PWR018
U 1 1 5ACAA76A
P 7000 4000
F 0 "#PWR018" H 7000 4000 50  0001 C CNN
F 1 "V_12V0" H 7000 4150 50  0000 C CNN
F 2 "" H 7000 4000 50  0001 C CNN
F 3 "" H 7000 4000 50  0001 C CNN
	1    7000 4000
	1    0    0    -1  
$EndComp
Wire Wire Line
	7000 4000 7000 4150
$Comp
L passive:R R5
U 1 1 5ACABFF6
P 6750 5450
F 0 "R5" H 6860 5470 50  0000 L BNN
F 1 "47k" H 6860 5430 50  0000 L TNN
F 2 "discrete_smt:RESC1608X50N_0603_WAVEPAD" H 6750 5450 50  0001 C CNN
F 3 "" H 6750 5450 50  0001 C CNN
	1    6750 5450
	0    -1   -1   0   
$EndComp
$Comp
L sch_power:GND #PWR017
U 1 1 5ACAC2EE
P 6750 5750
F 0 "#PWR017" H 6750 5650 50  0001 C CNN
F 1 "GND" H 6750 5650 50  0000 C CNN
F 2 "" H 6750 5750 50  0001 C CNN
F 3 "" H 6750 5750 50  0001 C CNN
	1    6750 5750
	1    0    0    -1  
$EndComp
Wire Wire Line
	6750 5100 6850 5100
Wire Wire Line
	6050 5100 6750 5100
Connection ~ 6750 5100
Wire Wire Line
	7000 5200 7000 5750
Wire Wire Line
	7500 5450 7500 5750
Wire Wire Line
	7800 4800 7800 5750
Text Label 5600 4400 0    50   ~ 0
PWM_MOT
Text Label 7100 4700 0    50   ~ 0
PWM_MOT_12V
Wire Wire Line
	6750 5100 6750 5250
Wire Wire Line
	6750 5650 6750 5750
Wire Wire Line
	5500 4400 6050 4400
Wire Wire Line
	6050 4400 6050 5100
Wire Wire Line
	5500 3400 6150 3400
Text Label 5600 3400 0    50   ~ 0
V_POT_FILT
$Comp
L passive:C_NP C7
U 1 1 5ACD48D3
P 6350 3750
F 0 "C7" H 6410 3770 50  0000 L BNN
F 1 "100n" H 6410 3730 50  0000 L TNN
F 2 "discrete_smt:CAPC1608X95N_0603_IPC-B" H 6350 3750 50  0001 C CNN
F 3 "" H 6350 3750 50  0001 C CNN
	1    6350 3750
	0    -1   -1   0   
$EndComp
$Comp
L passive:R R4
U 1 1 5ACD49A9
P 6650 3400
F 0 "R4" H 6760 3420 50  0000 L BNN
F 1 "1k" H 6760 3380 50  0000 L TNN
F 2 "discrete_smt:RESC1608X50N_0603_WAVEPAD" H 6650 3400 50  0001 C CNN
F 3 "" H 6650 3400 50  0001 C CNN
	1    6650 3400
	1    0    0    -1  
$EndComp
Wire Wire Line
	6350 3400 6450 3400
Connection ~ 6350 3400
$Comp
L sch_power:GND #PWR016
U 1 1 5ACD9B75
P 6350 4000
F 0 "#PWR016" H 6350 3900 50  0001 C CNN
F 1 "GND" H 6350 3900 50  0000 C CNN
F 2 "" H 6350 4000 50  0001 C CNN
F 3 "" H 6350 4000 50  0001 C CNN
	1    6350 4000
	1    0    0    -1  
$EndComp
Wire Wire Line
	6350 3850 6350 4000
Wire Wire Line
	6850 3400 7000 3400
Text GLabel 7000 3400 2    50   Input ~ 0
V_POT
Wire Wire Line
	6350 3400 6350 3650
$Comp
L passive:R R3
U 1 1 5ACE3F1D
P 6150 3750
F 0 "R3" H 6260 3770 50  0000 L BNN
F 1 "100k" H 6260 3730 50  0000 L TNN
F 2 "discrete_smt:RESC1608X50N_0603_WAVEPAD" H 6150 3750 50  0001 C CNN
F 3 "" H 6150 3750 50  0001 C CNN
	1    6150 3750
	0    -1   -1   0   
$EndComp
$Comp
L sch_power:GND #PWR015
U 1 1 5ACE79C5
P 6150 4000
F 0 "#PWR015" H 6150 3900 50  0001 C CNN
F 1 "GND" H 6150 3900 50  0000 C CNN
F 2 "" H 6150 4000 50  0001 C CNN
F 3 "" H 6150 4000 50  0001 C CNN
	1    6150 4000
	1    0    0    -1  
$EndComp
Wire Wire Line
	6150 3950 6150 4000
Wire Wire Line
	6150 3550 6150 3400
Connection ~ 6150 3400
Wire Wire Line
	6150 3400 6350 3400
$Comp
L sch_power:V_12V0 #PWR010
U 1 1 5AD0443D
P 4000 1150
F 0 "#PWR010" H 4000 1150 50  0001 C CNN
F 1 "V_12V0" H 4000 1300 50  0000 C CNN
F 2 "" H 4000 1150 50  0001 C CNN
F 3 "" H 4000 1150 50  0001 C CNN
	1    4000 1150
	1    0    0    -1  
$EndComp
$Comp
L sch_power:V_5V0 #PWR013
U 1 1 5AD0449A
P 5550 1150
F 0 "#PWR013" H 5550 1150 50  0001 C CNN
F 1 "V_5V0" H 5550 1300 50  0000 C CNN
F 2 "" H 5550 1150 50  0001 C CNN
F 3 "" H 5550 1150 50  0001 C CNN
	1    5550 1150
	1    0    0    -1  
$EndComp
Wire Wire Line
	4000 1150 4000 1250
Wire Wire Line
	4000 1250 4350 1250
Wire Wire Line
	5250 1250 5550 1250
Wire Wire Line
	5550 1250 5550 1150
$Comp
L passive:C_NP C5
U 1 1 5AD09E9C
P 4000 1550
F 0 "C5" H 4060 1570 50  0000 L BNN
F 1 "100n" H 4060 1530 50  0000 L TNN
F 2 "discrete_smt:CAPC1608X95N_0603_IPC-B" H 4000 1550 50  0001 C CNN
F 3 "" H 4000 1550 50  0001 C CNN
	1    4000 1550
	0    -1   -1   0   
$EndComp
$Comp
L passive:C_NP C6
U 1 1 5AD09F62
P 5550 1550
F 0 "C6" H 5610 1570 50  0000 L BNN
F 1 "100n" H 5610 1530 50  0000 L TNN
F 2 "discrete_smt:CAPC1608X95N_0603_IPC-B" H 5550 1550 50  0001 C CNN
F 3 "" H 5550 1550 50  0001 C CNN
	1    5550 1550
	0    -1   -1   0   
$EndComp
Wire Wire Line
	4000 1250 4000 1450
Connection ~ 4000 1250
Wire Wire Line
	5550 1250 5550 1450
Connection ~ 5550 1250
$Comp
L sch_power:GND #PWR011
U 1 1 5AD0EECF
P 4000 1750
F 0 "#PWR011" H 4000 1650 50  0001 C CNN
F 1 "GND" H 4000 1650 50  0000 C CNN
F 2 "" H 4000 1750 50  0001 C CNN
F 3 "" H 4000 1750 50  0001 C CNN
	1    4000 1750
	1    0    0    -1  
$EndComp
$Comp
L sch_power:GND #PWR014
U 1 1 5AD0EF12
P 5550 1750
F 0 "#PWR014" H 5550 1650 50  0001 C CNN
F 1 "GND" H 5550 1650 50  0000 C CNN
F 2 "" H 5550 1750 50  0001 C CNN
F 3 "" H 5550 1750 50  0001 C CNN
	1    5550 1750
	1    0    0    -1  
$EndComp
Wire Wire Line
	5550 1650 5550 1700
Wire Wire Line
	4000 1650 4000 1700
$Comp
L passive:C_NP C8
U 1 1 5AD38A81
P 2650 4600
F 0 "C8" V 2604 4678 50  0000 L CNN
F 1 "100n" V 2695 4678 50  0000 L CNN
F 2 "discrete_smt:CAPC1608X95N_0603_IPC-B" H 2650 4600 50  0001 C CNN
F 3 "" H 2650 4600 50  0001 C CNN
	1    2650 4600
	0    1    1    0   
$EndComp
Wire Wire Line
	2900 4300 2650 4300
Wire Wire Line
	2650 4300 2650 4500
Wire Wire Line
	2650 4700 2650 4800
Connection ~ 2650 4800
Wire Wire Line
	2650 4800 2900 4800
$Comp
L connector:J_GEN_6PIN-2COLX3ROW_Z J1
U 1 1 5AD2FCD9
P 9400 1000
F 0 "J1" H 9700 1150 50  0000 C CNN
F 1 "J_GEN_6PIN-2COLX3ROW_Z" H 9700 650 50  0000 C CNN
F 2 "connector_tht:PINHEADER_2.54MM_3x2-Z" H 9400 1000 50  0001 C CNN
F 3 "" H 9400 1000 50  0001 C CNN
	1    9400 1000
	1    0    0    -1  
$EndComp
$Comp
L misc:MTG_HOLE MTG1
U 1 1 5AD3C3AB
P 1750 6550
F 0 "MTG1" H 1750 6700 50  0000 C CNN
F 1 "P600_H320" V 1900 6550 50  0000 C CNN
F 2 "misc:MTGP600H320" H 1750 6550 50  0001 C CNN
F 3 "" H 1750 6550 50  0001 C CNN
	1    1750 6550
	1    0    0    -1  
$EndComp
$Comp
L misc:MTG_HOLE MTG2
U 1 1 5AD3C54B
P 2100 6550
F 0 "MTG2" H 2100 6700 50  0000 C CNN
F 1 "P600_H320" V 2250 6550 50  0000 C CNN
F 2 "misc:MTGP600H320" H 2100 6550 50  0001 C CNN
F 3 "" H 2100 6550 50  0001 C CNN
	1    2100 6550
	1    0    0    -1  
$EndComp
$Comp
L misc:MTG_HOLE MTG3
U 1 1 5AD3F51F
P 2450 6550
F 0 "MTG3" H 2450 6700 50  0000 C CNN
F 1 "P600_H320" V 2600 6550 50  0000 C CNN
F 2 "misc:MTGP600H320" H 2450 6550 50  0001 C CNN
F 3 "" H 2450 6550 50  0001 C CNN
	1    2450 6550
	1    0    0    -1  
$EndComp
$Comp
L misc:MTG_HOLE MTG4
U 1 1 5AD424EE
P 2800 6550
F 0 "MTG4" H 2800 6700 50  0000 C CNN
F 1 "P600_H320" V 2950 6550 50  0000 C CNN
F 2 "misc:MTGP600H320" H 2800 6550 50  0001 C CNN
F 3 "" H 2800 6550 50  0001 C CNN
	1    2800 6550
	1    0    0    -1  
$EndComp
$Comp
L sch_power:GND #PWR029
U 1 1 5AD48659
P 1750 6850
F 0 "#PWR029" H 1750 6750 50  0001 C CNN
F 1 "GND" H 1750 6750 50  0000 C CNN
F 2 "" H 1750 6850 50  0001 C CNN
F 3 "" H 1750 6850 50  0001 C CNN
	1    1750 6850
	1    0    0    -1  
$EndComp
Wire Wire Line
	1750 6800 1750 6850
$Comp
L sch_power:GND #PWR030
U 1 1 5AD4B98F
P 2100 6850
F 0 "#PWR030" H 2100 6750 50  0001 C CNN
F 1 "GND" H 2100 6750 50  0000 C CNN
F 2 "" H 2100 6850 50  0001 C CNN
F 3 "" H 2100 6850 50  0001 C CNN
	1    2100 6850
	1    0    0    -1  
$EndComp
Wire Wire Line
	2100 6800 2100 6850
$Comp
L sch_power:GND #PWR031
U 1 1 5AD4EBA4
P 2450 6850
F 0 "#PWR031" H 2450 6750 50  0001 C CNN
F 1 "GND" H 2450 6750 50  0000 C CNN
F 2 "" H 2450 6850 50  0001 C CNN
F 3 "" H 2450 6850 50  0001 C CNN
	1    2450 6850
	1    0    0    -1  
$EndComp
Wire Wire Line
	2450 6800 2450 6850
$Comp
L sch_power:GND #PWR032
U 1 1 5AD51ECD
P 2800 6850
F 0 "#PWR032" H 2800 6750 50  0001 C CNN
F 1 "GND" H 2800 6750 50  0000 C CNN
F 2 "" H 2800 6850 50  0001 C CNN
F 3 "" H 2800 6850 50  0001 C CNN
	1    2800 6850
	1    0    0    -1  
$EndComp
Wire Wire Line
	2800 6800 2800 6850
$Comp
L ic:U_PWR_LINREG_L78L05_SO8 U2
U 1 1 5AD92206
P 4800 1250
F 0 "U2" H 4800 1400 50  0000 C CNN
F 1 "U_PWR_LINREG_L78L05_SO8" H 4300 800 50  0000 L TNN
F 2 "ic_smt:SOIC8P127_490X600X175L83X42N" H 4800 1250 50  0001 C CNN
F 3 "" H 4800 1250 50  0001 C CNN
	1    4800 1250
	1    0    0    -1  
$EndComp
Wire Wire Line
	5250 1350 5400 1350
Wire Wire Line
	5400 1350 5400 1450
Wire Wire Line
	5400 1700 5550 1700
Connection ~ 5550 1700
Wire Wire Line
	5550 1700 5550 1750
Wire Wire Line
	5250 1450 5400 1450
Connection ~ 5400 1450
Wire Wire Line
	5400 1450 5400 1700
Wire Wire Line
	4350 1350 4150 1350
Wire Wire Line
	4150 1350 4150 1450
Wire Wire Line
	4150 1700 4000 1700
Connection ~ 4000 1700
Wire Wire Line
	4000 1700 4000 1750
Wire Wire Line
	4350 1450 4150 1450
Connection ~ 4150 1450
Wire Wire Line
	4150 1450 4150 1700
Wire Wire Line
	1100 3400 1100 3650
Wire Wire Line
	1900 3400 1900 3650
$Comp
L passive:XTAL Q1
U 1 1 5ADC7195
P 1500 3650
F 0 "Q1" H 1560 3670 50  0000 L BNN
F 1 "16MHz" H 1560 3630 50  0000 L TNN
F 2 "discrete_tht:XTAL_HC49P488W43L1140T380H350" H 1500 3650 50  0001 C CNN
F 3 "" H 1500 3650 50  0001 C CNN
	1    1500 3650
	1    0    0    -1  
$EndComp
Wire Wire Line
	1400 3650 1100 3650
Connection ~ 1100 3650
Wire Wire Line
	1100 3650 1100 4000
Wire Wire Line
	1600 3650 1900 3650
Connection ~ 1900 3650
Wire Wire Line
	1900 3650 1900 4000
$EndSCHEMATC
